{
   "service" : {
      "expressCheckout" : "in.juspay.ec",
      "HyperPay" : "in.juspay.hyperpay"
   },
   "$orderId" : "hyperorder45314",
   "$endUrls" : ["https:\/\/shop.merchant.com\/payments\/handleResponse"],
   "$clientAuthToken" : "tkn_0e37edc631d647fdb606ab48ccfc4213",
   "$bankIfsc" : "SBIN0070740",
   "$bankAccountNumber" : "00000067369932310",
   "$bankBeneficiaryName" : "Parthiban P",
   "$mandateType" : "EMANDATE",
   "$bankId" : "bank_gYB2qivEEGUYonVW",
   "$shouldCreateMandate" : true,
   "$gatewayId" : 23,
   "$gatewayReferenceId" : "insurance",
   "$amount" : "1.00",
   "$cardNumber" : "4622542877004567",
   "$cardExpMonth" : "05",
   "$cardExpYear" : "25",
   "$cardSecurityCode" : "123",
   "$saveToLocker" : true,
   "$cardToken" : "844ce1fb-9810-4b87-82a5-c8a62b30ded0",
   "$cardBin" : "459162",
   "$nameOnCard" : "Rak",
   "$custVpa" : "90005643210@ybl",
   "$upiSdkPresent" : true,
   "$showLoader" : false,
   "$payWithApp" : "com.phonepe.app",
   "$walletName" : "PAYTM",
   "$walletId" : "wlt_nvtQf8DP1A2oGoZu",
   "$otp" : "472243",
   "$paymentMethod": "PAYPAL",
   "$directWalletToken" : "wlt_nvtQf8DP1A2oGoZu",
   "$sdkPresent" : "ANDROID_PAYPAL",
   "$walletMobileNumber" : "9618902345",
   "$url" : "www.juspay.in"
}